{
  "cities": [
    {
         "title_ru":"лондон",
         "title_en":"london",
         "center":{
            "lat":51.507352,
            "lon":-0.1277
         },
         "radius_meters":60000,
         "osm_extract_file":"britain-and-ireland-latest.osm.pbf",
         "geofabrik_path":"europe",
         "borders_for_tiles":{
            "west_south":{
               "lat":50.973260,
               "lon":-0.93941
            },
            "east_north":{
               "lat":51.980991,
               "lon":0.770806
            }
         }
    }
  ]
}
